[fifo_get]
[LINK_DATA] link_pdu_free(0)
[LINK_DATA] link_pdu_get(0)
[LINK_DATA] link_pdu_malloc(0)
2018-01-20 00:53:16 [0260940894] SIG ->  fsm_link_phy_state_handle link_phy.cpp:333 GW_LINK_PHY_FRAME_REV
2018-01-20 00:53:16 [0260940895] SIG ->  fsm_link_phy_state_handle link_phy.cpp:333 GW_LINK_PHY_FRAME_REV
2018-01-20 00:53:16 [0260940895] SIG ->  fsm_link_mac_state_handle link_mac.cpp:246 GW_LINK_MAC_FRAME_REV
2018-01-20 00:53:16 [0260940895] APP_DBG link_mac_rev_state_set link_mac.cpp:311 [MAC] link_mac_rev_state_set -> 1
2018-01-20 00:53:16 [0260940895] SYS_DBG link_pdu_malloc link_data.cpp:52 [LINK_DATA] link_pdu_malloc(2)
2018-01-20 00:53:16 [0260940896] SIG ->  fsm_link_mac_state_handle link_mac.cpp:181 GW_LINK_MAC_FRAME_SEND_DONE
2018-01-20 00:53:16 [0260940896] SIG ->  fsm_link_phy_state_handle link_phy.cpp:296 GW_LINK_PHY_FRAME_SEND_REQ
[LINK_DATA] link_pdu_get(0)
[LINK_DATA] link_pdu_free(0)
[LINK_DATA] link_pdu_malloc(0)
[fifo_put]
2018-01-20 00:53:16 [0260940931] SIG ->  fsm_link_phy_state_handle link_phy.cpp:333 GW_LINK_PHY_FRAME_REV
2018-01-20 00:53:16 [0260940931] SIG ->  fsm_link_phy_state_handle link_phy.cpp:333 GW_LINK_PHY_FRAME_REV
2018-01-20 00:53:16 [0260940932] SIG ->  fsm_link_mac_state_handle link_mac.cpp:246 GW_LINK_MAC_FRAME_REV
2018-01-20 00:53:16 [0260940932] APP_DBG link_mac_rev_state_set link_mac.cpp:311 [MAC] link_mac_rev_state_set -> 0
2018-01-20 00:53:16 [0260940932] SIG ->  fsm_link_mac_state_handle link_mac.cpp:181 GW_LINK_MAC_FRAME_SEND_DONE
2018-01-20 00:53:16 [0260940932] APP_DBG link_mac_send_state_set link_mac.cpp:302 [MAC] link_mac_send_state_set -> 0
2018-01-20 00:53:16 [0260940933] SIG ->  fsm_link_state_handle link.cpp:180 GW_LINK_REV_MSG
2018-01-20 00:53:16 [0260940933] SYS_DBG link_pdu_get link_data.cpp:66 [LINK_DATA] link_pdu_get(2)
2018-01-20 00:53:16 [0260940933] SYS_DBG link_pdu_free link_data.cpp:71 [LINK_DATA] link_pdu_free(2)
2018-01-20 00:53:16 [0260940934] SIG ->  fsm_link_state_handle link.cpp:173 GW_LINK_SEND_DONE
2018-01-20 00:53:16 [0260940934] SYS_DBG link_pdu_free link_data.cpp:71 [LINK_DATA] link_pdu_free(2)
2018-01-20 00:53:16 [0260940935] SIG ->  fsm_link_state_handle link.cpp:94 GW_LINK_SEND_COMMON_MSG
2018-01-20 00:53:16 [0260940935] SYS_DBG link_pdu_malloc link_data.cpp:52 [LINK_DATA] link_pdu_malloc(2)
2018-01-20 00:53:16 [0260940935] SIG ->  fsm_link_mac_state_handle link_mac.cpp:130 GW_LINK_MAC_FRAME_SEND_REQ
2018-01-20 00:53:16 [0260940936] APP_DBG link_mac_send_state_set link_mac.cpp:302 [MAC] link_mac_send_state_set -> 1
2018-01-20 00:53:16 [0260940936] SIG ->  fsm_link_mac_state_handle link_mac.cpp:150 GW_LINK_MAC_FRAME_SEND_START
2018-01-20 00:53:16 [0260940936] SYS_DBG link_pdu_get link_data.cpp:66 [LINK_DATA] link_pdu_get(2)
2018-01-20 00:53:16 [0260940936] SIG ->  fsm_link_phy_state_handle link_phy.cpp:296 GW_LINK_PHY_FRAME_SEND_REQ
[fifo_get]
[LINK_DATA] link_pdu_free(0)
[LINK_DATA] link_pdu_get(0)
[LINK_DATA] link_pdu_malloc(0)
2018-01-20 00:53:16 [0260940968] SIG ->  fsm_link_phy_state_handle link_phy.cpp:333 GW_LINK_PHY_FRAME_REV
2018-01-20 00:53:16 [0260940968] SIG ->  fsm_link_phy_state_handle link_phy.cpp:333 GW_LINK_PHY_FRAME_REV
2018-01-20 00:53:16 [0260940968] SIG ->  fsm_link_mac_state_handle link_mac.cpp:246 GW_LINK_MAC_FRAME_REV
2018-01-20 00:53:16 [0260940969] APP_DBG link_mac_rev_state_set link_mac.cpp:311 [MAC] link_mac_rev_state_set -> 1
2018-01-20 00:53:16 [0260940969] SYS_DBG link_pdu_malloc link_data.cpp:52 [LINK_DATA] link_pdu_malloc(2)
2018-01-20 00:53:16 [0260940969] SIG ->  fsm_link_mac_state_handle link_mac.cpp:181 GW_LINK_MAC_FRAME_SEND_DONE
2018-01-20 00:53:16 [0260940969] SIG ->  fsm_link_phy_state_handle link_phy.cpp:296 GW_LINK_PHY_FRAME_SEND_REQ
[LINK_DATA] link_pdu_get(0)
[LINK_DATA] link_pdu_free(0)
[LINK_DATA] link_pdu_malloc(0)
2018-01-20 00:53:16 [0260941004] SIG ->  fsm_link_phy_state_handle link_phy.cpp:333 GW_LINK_PHY_FRAME_REV
[fifo_put]
2018-01-20 00:53:16 [0260941005] SIG ->  fsm_link_phy_state_handle link_phy.cpp:333 GW_LINK_PHY_FRAME_REV
2018-01-20 00:53:16 [0260941005] SIG ->  fsm_link_mac_state_handle link_mac.cpp:246 GW_LINK_MAC_FRAME_REV
2018-01-20 00:53:16 [0260941005] APP_DBG link_mac_rev_state_set link_mac.cpp:311 [MAC] link_mac_rev_state_set -> 0
2018-01-20 00:53:16 [0260941006] SIG ->  fsm_link_state_handle link.cpp:180 GW_LINK_REV_MSG
2018-01-20 00:53:16 [0260941006] SIG ->  fsm_link_mac_state_handle link_mac.cpp:181 GW_LINK_MAC_FRAME_SEND_DONE
2018-01-20 00:53:16 [0260941006] SYS_DBG link_pdu_get link_data.cpp:66 [LINK_DATA] link_pdu_get(2)
2018-01-20 00:53:16 [0260941006] APP_DBG link_mac_send_state_set link_mac.cpp:302 [MAC] link_mac_send_state_set -> 0
2018-01-20 00:53:16 [0260941007] SYS_DBG link_pdu_free link_data.cpp:71 [LINK_DATA] link_pdu_free(2)
2018-01-20 00:53:16 [0260941007] SIG ->  fsm_link_state_handle link.cpp:173 GW_LINK_SEND_DONE
2018-01-20 00:53:16 [0260941007] SYS_DBG link_pdu_free link_data.cpp:71 [LINK_DATA] link_pdu_free(2)
2018-01-20 00:53:16 [0260941008] SIG ->  fsm_link_state_handle link.cpp:94 GW_LINK_SEND_COMMON_MSG
2018-01-20 00:53:16 [0260941008] SYS_DBG link_pdu_malloc link_data.cpp:52 [LINK_DATA] link_pdu_malloc(2)
2018-01-20 00:53:16 [0260941008] SIG ->  fsm_link_mac_state_handle link_mac.cpp:130 GW_LINK_MAC_FRAME_SEND_REQ
2018-01-20 00:53:16 [0260941008] APP_DBG link_mac_send_state_set link_mac.cpp:302 [MAC] link_mac_send_state_set -> 1
2018-01-20 00:53:16 [0260941009] SIG ->  fsm_link_mac_state_handle link_mac.cpp:150 GW_LINK_MAC_FRAME_SEND_START
2018-01-20 00:53:16 [0260941009] SYS_DBG link_pdu_get link_data.cpp:66 [LINK_DATA] link_pdu_get(2)
2018-01-20 00:53:16 [0260941009] SIG ->  fsm_link_phy_state_handle link_phy.cpp:296 GW_LINK_PHY_FRAME_SEND_REQ
[fifo_get]
[LINK_DATA] link_pdu_free(0)
[LINK_DATA] link_pdu_get(0)
[LINK_DATA] link_pdu_malloc(0)
2018-01-20 00:53:16 [0260941041] SIG ->  fsm_link_phy_state_handle link_phy.cpp:333 GW_LINK_PHY_FRAME_REV
2018-01-20 00:53:16 [0260941041] SIG ->  fsm_link_phy_state_handle link_phy.cpp:333 GW_LINK_PHY_FRAME_REV
2018-01-20 00:53:16 [0260941042] SIG ->  fsm_link_mac_state_handle link_mac.cpp:246 GW_LINK_MAC_FRAME_REV
2018-01-20 00:53:16 [0260941042] APP_DBG link_mac_rev_state_set link_mac.cpp:311 [MAC] link_mac_rev_state_set -> 1
2018-01-20 00:53:16 [0260941042] SYS_DBG link_pdu_malloc link_data.cpp:52 [LINK_DATA] link_pdu_malloc(2)
2018-01-20 00:53:16 [0260941042] SIG ->  fsm_link_mac_state_handle link_mac.cpp:181 GW_LINK_MAC_FRAME_SEND_DONE
2018-01-20 00:53:16 [0260941043] SIG ->  fsm_link_phy_state_handle link_phy.cpp:296 GW_LINK_PHY_FRAME_SEND_REQ
[LINK_DATA] link_pdu_get(0)
[LINK_DATA] link_pdu_free(0)
[LINK_DATA] link_pdu_malloc(0)
[fifo_put]
2018-01-20 00:53:16 [0260941078] SIG ->  fsm_link_phy_state_handle link_phy.cpp:333 GW_LINK_PHY_FRAME_REV
2018-01-20 00:53:16 [0260941079] SIG ->  fsm_link_phy_state_handle link_phy.cpp:333 GW_LINK_PHY_FRAME_REV
2018-01-20 00:53:16 [0260941079] SIG ->  fsm_link_mac_state_handle link_mac.cpp:246 GW_LINK_MAC_FRAME_REV
2018-01-20 00:53:16 [0260941079] APP_DBG link_mac_rev_state_set link_mac.cpp:311 [MAC] link_mac_rev_state_set -> 0
2018-01-20 00:53:16 [0260941080] SIG ->  fsm_link_mac_state_handle link_mac.cpp:181 GW_LINK_MAC_FRAME_SEND_DONE
2018-01-20 00:53:16 [0260941080] SIG ->  fsm_link_state_handle link.cpp:180 GW_LINK_REV_MSG
2018-01-20 00:53:16 [0260941080] SYS_DBG link_pdu_get link_data.cpp:66 [LINK_DATA] link_pdu_get(2)
2018-01-20 00:53:16 [0260941080] APP_DBG link_mac_send_state_set link_mac.cpp:302 [MAC] link_mac_send_state_set -> 0
2018-01-20 00:53:16 [0260941081] SYS_DBG link_pdu_free link_data.cpp:71 [LINK_DATA] link_pdu_free(2)
2018-01-20 00:53:16 [0260941081] SIG ->  fsm_link_state_handle link.cpp:173 GW_LINK_SEND_DONE
2018-01-20 00:53:16 [0260941081] SYS_DBG link_pdu_free link_data.cpp:71 [LINK_DATA] link_pdu_free(2)
==13629== Thread 9:
==13629== Invalid read of size 8
==13629==    at 0x10BA99: trace_msg_get(ak_msg_t*, unsigned int, long) (trace.cpp:194)
==13629==    by 0x10B45C: q_dbg_msg_get (message.cpp:136)
==13629==    by 0x10B45C: q_msg_get(q_msg_t*) (message.cpp:73)
==13629==    by 0x10D5D8: gw_task_debug_msg_entry(void*) (task_debug_msg.cpp:34)
==13629==    by 0x4E40709: start_thread (pthread_create.c:333)
==13629==    by 0x59060AE: clone (clone.S:105)
==13629==  Address 0x60c9c20 is 16 bytes inside a block of size 24 free'd
==13629==    at 0x4C2DD6B: free (in /usr/lib/valgrind/vgpreload_memcheck-amd64-linux.so)
==13629==    by 0x10D578: gw_task_if_entry(void*) (task_if.cpp:77)
==13629==    by 0x4E40709: start_thread (pthread_create.c:333)
==13629==    by 0x59060AE: clone (clone.S:105)
==13629==  Block was alloc'd at
==13629==    at 0x4C2CB3F: malloc (in /usr/lib/valgrind/vgpreload_memcheck-amd64-linux.so)
==13629==    by 0x10AAFF: get_common_msg() (ak.cpp:177)
==13629==    by 0x10F36A: fsm_link_state_handle(ak_msg_t*) (link.cpp:204)
==13629==    by 0x10F5A3: task_link (link.cpp:30)
==13629==    by 0x10F5A3: gw_task_link_entry(void*) (link.cpp:279)
==13629==    by 0x4E40709: start_thread (pthread_create.c:333)
==13629==    by 0x59060AE: clone (clone.S:105)
==13629== 
==13629== Invalid read of size 4
==13629==    at 0x10B617: trace_post_msg(ak_trace_msg_t*, ak_msg_t*) [clone .isra.24] [clone .constprop.26] (trace.cpp:212)
==13629==    by 0x10BABC: trace_msg_get(ak_msg_t*, unsigned int, long) (trace.cpp:194)
==13629==    by 0x10B45C: q_dbg_msg_get (message.cpp:136)
==13629==    by 0x10B45C: q_msg_get(q_msg_t*) (message.cpp:73)
==13629==    by 0x10D5D8: gw_task_debug_msg_entry(void*) (task_debug_msg.cpp:34)
==13629==    by 0x4E40709: start_thread (pthread_create.c:333)
==13629==    by 0x59060AE: clone (clone.S:105)
==13629==  Address 0x60c9ca4 is 52 bytes inside a block of size 64 free'd
==13629==    at 0x4C2DD6B: free (in /usr/lib/valgrind/vgpreload_memcheck-amd64-linux.so)
==13629==    by 0x10B4A8: q_msg_free(ak_msg_t*) (message.cpp:90)
==13629==    by 0x10D578: gw_task_if_entry(void*) (task_if.cpp:77)
==13629==    by 0x4E40709: start_thread (pthread_create.c:333)
==13629==    by 0x59060AE: clone (clone.S:105)
==13629==  Block was alloc'd at
==13629==    at 0x4C2CB3F: malloc (in /usr/lib/valgrind/vgpreload_memcheck-amd64-linux.so)
==13629==    by 0x10AB22: get_common_msg() (ak.cpp:182)
==13629==    by 0x10F36A: fsm_link_state_handle(ak_msg_t*) (link.cpp:204)
==13629==    by 0x10F5A3: task_link (link.cpp:30)
==13629==    by 0x10F5A3: gw_task_link_entry(void*) (link.cpp:279)
==13629==    by 0x4E40709: start_thread (pthread_create.c:333)
==13629==    by 0x59060AE: clone (clone.S:105)
==13629== 
==13629== Invalid read of size 4
==13629==    at 0x10B635: trace_post_msg(ak_trace_msg_t*, ak_msg_t*) [clone .isra.24] [clone .constprop.26] (trace.cpp:222)
==13629==    by 0x10BABC: trace_msg_get(ak_msg_t*, unsigned int, long) (trace.cpp:194)
==13629==    by 0x10B45C: q_dbg_msg_get (message.cpp:136)
==13629==    by 0x10B45C: q_msg_get(q_msg_t*) (message.cpp:73)
==13629==    by 0x10D5D8: gw_task_debug_msg_entry(void*) (task_debug_msg.cpp:34)
==13629==    by 0x4E40709: start_thread (pthread_create.c:333)
==13629==    by 0x59060AE: clone (clone.S:105)
==13629==  Address 0x60c9c88 is 24 bytes inside a block of size 64 free'd
==13629==    at 0x4C2DD6B: free (in /usr/lib/valgrind/vgpreload_memcheck-amd64-linux.so)
==13629==    by 0x10B4A8: q_msg_free(ak_msg_t*) (message.cpp:90)
==13629==    by 0x10D578: gw_task_if_entry(void*) (task_if.cpp:77)
==13629==    by 0x4E40709: start_thread (pthread_create.c:333)
==13629==    by 0x59060AE: clone (clone.S:105)
==13629==  Block was alloc'd at
==13629==    at 0x4C2CB3F: malloc (in /usr/lib/valgrind/vgpreload_memcheck-amd64-linux.so)
==13629==    by 0x10AB22: get_common_msg() (ak.cpp:182)
==13629==    by 0x10F36A: fsm_link_state_handle(ak_msg_t*) (link.cpp:204)
==13629==    by 0x10F5A3: task_link (link.cpp:30)
==13629==    by 0x10F5A3: gw_task_link_entry(void*) (link.cpp:279)
==13629==    by 0x4E40709: start_thread (pthread_create.c:333)
==13629==    by 0x59060AE: clone (clone.S:105)
==13629== 
==13629== Invalid read of size 4
==13629==    at 0x10B638: trace_post_msg(ak_trace_msg_t*, ak_msg_t*) [clone .isra.24] [clone .constprop.26] (trace.cpp:220)
==13629==    by 0x10BABC: trace_msg_get(ak_msg_t*, unsigned int, long) (trace.cpp:194)
==13629==    by 0x10B45C: q_dbg_msg_get (message.cpp:136)
==13629==    by 0x10B45C: q_msg_get(q_msg_t*) (message.cpp:73)
==13629==    by 0x10D5D8: gw_task_debug_msg_entry(void*) (task_debug_msg.cpp:34)
==13629==    by 0x4E40709: start_thread (pthread_create.c:333)
==13629==    by 0x59060AE: clone (clone.S:105)
==13629==  Address 0x60c9c80 is 16 bytes inside a block of size 64 free'd
==13629==    at 0x4C2DD6B: free (in /usr/lib/valgrind/vgpreload_memcheck-amd64-linux.so)
==13629==    by 0x10B4A8: q_msg_free(ak_msg_t*) (message.cpp:90)
==13629==    by 0x10D578: gw_task_if_entry(void*) (task_if.cpp:77)
==13629==    by 0x4E40709: start_thread (pthread_create.c:333)
==13629==    by 0x59060AE: clone (clone.S:105)
==13629==  Block was alloc'd at
==13629==    at 0x4C2CB3F: malloc (in /usr/lib/valgrind/vgpreload_memcheck-amd64-linux.so)
==13629==    by 0x10AB22: get_common_msg() (ak.cpp:182)
==13629==    by 0x10F36A: fsm_link_state_handle(ak_msg_t*) (link.cpp:204)
==13629==    by 0x10F5A3: task_link (link.cpp:30)
==13629==    by 0x10F5A3: gw_task_link_entry(void*) (link.cpp:279)
==13629==    by 0x4E40709: start_thread (pthread_create.c:333)
==13629==    by 0x59060AE: clone (clone.S:105)
==13629== 
==13629== Invalid read of size 4
==13629==    at 0x10B63E: trace_post_msg(ak_trace_msg_t*, ak_msg_t*) [clone .isra.24] [clone .constprop.26] (trace.cpp:221)
==13629==    by 0x10BABC: trace_msg_get(ak_msg_t*, unsigned int, long) (trace.cpp:194)
==13629==    by 0x10B45C: q_dbg_msg_get (message.cpp:136)
==13629==    by 0x10B45C: q_msg_get(q_msg_t*) (message.cpp:73)
==13629==    by 0x10D5D8: gw_task_debug_msg_entry(void*) (task_debug_msg.cpp:34)
==13629==    by 0x4E40709: start_thread (pthread_create.c:333)
==13629==    by 0x59060AE: clone (clone.S:105)
==13629==  Address 0x60c9c84 is 20 bytes inside a block of size 64 free'd
==13629==    at 0x4C2DD6B: free (in /usr/lib/valgrind/vgpreload_memcheck-amd64-linux.so)
==13629==    by 0x10B4A8: q_msg_free(ak_msg_t*) (message.cpp:90)
==13629==    by 0x10D578: gw_task_if_entry(void*) (task_if.cpp:77)
==13629==    by 0x4E40709: start_thread (pthread_create.c:333)
==13629==    by 0x59060AE: clone (clone.S:105)
==13629==  Block was alloc'd at
==13629==    at 0x4C2CB3F: malloc (in /usr/lib/valgrind/vgpreload_memcheck-amd64-linux.so)
==13629==    by 0x10AB22: get_common_msg() (ak.cpp:182)
==13629==    by 0x10F36A: fsm_link_state_handle(ak_msg_t*) (link.cpp:204)
==13629==    by 0x10F5A3: task_link (link.cpp:30)
==13629==    by 0x10F5A3: gw_task_link_entry(void*) (link.cpp:279)
==13629==    by 0x4E40709: start_thread (pthread_create.c:333)
==13629==    by 0x59060AE: clone (clone.S:105)
==13629== 
==13629== Invalid read of size 4
==13629==    at 0x10B642: trace_post_msg(ak_trace_msg_t*, ak_msg_t*) [clone .isra.24] [clone .constprop.26] (trace.cpp:223)
==13629==    by 0x10BABC: trace_msg_get(ak_msg_t*, unsigned int, long) (trace.cpp:194)
==13629==    by 0x10B45C: q_dbg_msg_get (message.cpp:136)
==13629==    by 0x10B45C: q_msg_get(q_msg_t*) (message.cpp:73)
==13629==    by 0x10D5D8: gw_task_debug_msg_entry(void*) (task_debug_msg.cpp:34)
==13629==    by 0x4E40709: start_thread (pthread_create.c:333)
==13629==    by 0x59060AE: clone (clone.S:105)
==13629==  Address 0x60c9c8c is 28 bytes inside a block of size 64 free'd
==13629==    at 0x4C2DD6B: free (in /usr/lib/valgrind/vgpreload_memcheck-amd64-linux.so)
==13629==    by 0x10B4A8: q_msg_free(ak_msg_t*) (message.cpp:90)
==13629==    by 0x10D578: gw_task_if_entry(void*) (task_if.cpp:77)
==13629==    by 0x4E40709: start_thread (pthread_create.c:333)
==13629==    by 0x59060AE: clone (clone.S:105)
==13629==  Block was alloc'd at
==13629==    at 0x4C2CB3F: malloc (in /usr/lib/valgrind/vgpreload_memcheck-amd64-linux.so)
==13629==    by 0x10AB22: get_common_msg() (ak.cpp:182)
==13629==    by 0x10F36A: fsm_link_state_handle(ak_msg_t*) (link.cpp:204)
==13629==    by 0x10F5A3: task_link (link.cpp:30)
==13629==    by 0x10F5A3: gw_task_link_entry(void*) (link.cpp:279)
==13629==    by 0x4E40709: start_thread (pthread_create.c:333)
==13629==    by 0x59060AE: clone (clone.S:105)
==13629== 
==13629== Invalid read of size 4
==13629==    at 0x10B649: trace_post_msg(ak_trace_msg_t*, ak_msg_t*) [clone .isra.24] [clone .constprop.26] (trace.cpp:224)
==13629==    by 0x10BABC: trace_msg_get(ak_msg_t*, unsigned int, long) (trace.cpp:194)
==13629==    by 0x10B45C: q_dbg_msg_get (message.cpp:136)
==13629==    by 0x10B45C: q_msg_get(q_msg_t*) (message.cpp:73)
==13629==    by 0x10D5D8: gw_task_debug_msg_entry(void*) (task_debug_msg.cpp:34)
==13629==    by 0x4E40709: start_thread (pthread_create.c:333)
==13629==    by 0x59060AE: clone (clone.S:105)
==13629==  Address 0x60c9c90 is 32 bytes inside a block of size 64 free'd
==13629==    at 0x4C2DD6B: free (in /usr/lib/valgrind/vgpreload_memcheck-amd64-linux.so)
==13629==    by 0x10B4A8: q_msg_free(ak_msg_t*) (message.cpp:90)
==13629==    by 0x10D578: gw_task_if_entry(void*) (task_if.cpp:77)
==13629==    by 0x4E40709: start_thread (pthread_create.c:333)
==13629==    by 0x59060AE: clone (clone.S:105)
==13629==  Block was alloc'd at
==13629==    at 0x4C2CB3F: malloc (in /usr/lib/valgrind/vgpreload_memcheck-amd64-linux.so)
==13629==    by 0x10AB22: get_common_msg() (ak.cpp:182)
==13629==    by 0x10F36A: fsm_link_state_handle(ak_msg_t*) (link.cpp:204)
==13629==    by 0x10F5A3: task_link (link.cpp:30)
==13629==    by 0x10F5A3: gw_task_link_entry(void*) (link.cpp:279)
==13629==    by 0x4E40709: start_thread (pthread_create.c:333)
==13629==    by 0x59060AE: clone (clone.S:105)
==13629== 
==13629== Invalid read of size 4
==13629==    at 0x10B64C: trace_post_msg(ak_trace_msg_t*, ak_msg_t*) [clone .isra.24] [clone .constprop.26] (trace.cpp:225)
==13629==    by 0x10BABC: trace_msg_get(ak_msg_t*, unsigned int, long) (trace.cpp:194)
==13629==    by 0x10B45C: q_dbg_msg_get (message.cpp:136)
==13629==    by 0x10B45C: q_msg_get(q_msg_t*) (message.cpp:73)
==13629==    by 0x10D5D8: gw_task_debug_msg_entry(void*) (task_debug_msg.cpp:34)
==13629==    by 0x4E40709: start_thread (pthread_create.c:333)
==13629==    by 0x59060AE: clone (clone.S:105)
==13629==  Address 0x60c9c94 is 36 bytes inside a block of size 64 free'd
==13629==    at 0x4C2DD6B: free (in /usr/lib/valgrind/vgpreload_memcheck-amd64-linux.so)
==13629==    by 0x10B4A8: q_msg_free(ak_msg_t*) (message.cpp:90)
==13629==    by 0x10D578: gw_task_if_entry(void*) (task_if.cpp:77)
==13629==    by 0x4E40709: start_thread (pthread_create.c:333)
==13629==    by 0x59060AE: clone (clone.S:105)
==13629==  Block was alloc'd at
==13629==    at 0x4C2CB3F: malloc (in /usr/lib/valgrind/vgpreload_memcheck-amd64-linux.so)
==13629==    by 0x10AB22: get_common_msg() (ak.cpp:182)
==13629==    by 0x10F36A: fsm_link_state_handle(ak_msg_t*) (link.cpp:204)
==13629==    by 0x10F5A3: task_link (link.cpp:30)
==13629==    by 0x10F5A3: gw_task_link_entry(void*) (link.cpp:279)
==13629==    by 0x4E40709: start_thread (pthread_create.c:333)
==13629==    by 0x59060AE: clone (clone.S:105)
==13629== 
==13629== Invalid read of size 4
==13629==    at 0x10B64F: trace_post_msg(ak_trace_msg_t*, ak_msg_t*) [clone .isra.24] [clone .constprop.26] (trace.cpp:226)
==13629==    by 0x10BABC: trace_msg_get(ak_msg_t*, unsigned int, long) (trace.cpp:194)
==13629==    by 0x10B45C: q_dbg_msg_get (message.cpp:136)
==13629==    by 0x10B45C: q_msg_get(q_msg_t*) (message.cpp:73)
==13629==    by 0x10D5D8: gw_task_debug_msg_entry(void*) (task_debug_msg.cpp:34)
==13629==    by 0x4E40709: start_thread (pthread_create.c:333)
==13629==    by 0x59060AE: clone (clone.S:105)
==13629==  Address 0x60c9c98 is 40 bytes inside a block of size 64 free'd
==13629==    at 0x4C2DD6B: free (in /usr/lib/valgrind/vgpreload_memcheck-amd64-linux.so)
==13629==    by 0x10B4A8: q_msg_free(ak_msg_t*) (message.cpp:90)
==13629==    by 0x10D578: gw_task_if_entry(void*) (task_if.cpp:77)
==13629==    by 0x4E40709: start_thread (pthread_create.c:333)
==13629==    by 0x59060AE: clone (clone.S:105)
==13629==  Block was alloc'd at
==13629==    at 0x4C2CB3F: malloc (in /usr/lib/valgrind/vgpreload_memcheck-amd64-linux.so)
==13629==    by 0x10AB22: get_common_msg() (ak.cpp:182)
==13629==    by 0x10F36A: fsm_link_state_handle(ak_msg_t*) (link.cpp:204)
==13629==    by 0x10F5A3: task_link (link.cpp:30)
==13629==    by 0x10F5A3: gw_task_link_entry(void*) (link.cpp:279)
==13629==    by 0x4E40709: start_thread (pthread_create.c:333)
==13629==    by 0x59060AE: clone (clone.S:105)
==13629== 
==13629== Invalid read of size 4
==13629==    at 0x10B652: trace_post_msg(ak_trace_msg_t*, ak_msg_t*) [clone .isra.24] [clone .constprop.26] (trace.cpp:228)
==13629==    by 0x10BABC: trace_msg_get(ak_msg_t*, unsigned int, long) (trace.cpp:194)
==13629==    by 0x10B45C: q_dbg_msg_get (message.cpp:136)
==13629==    by 0x10B45C: q_msg_get(q_msg_t*) (message.cpp:73)
==13629==    by 0x10D5D8: gw_task_debug_msg_entry(void*) (task_debug_msg.cpp:34)
==13629==    by 0x4E40709: start_thread (pthread_create.c:333)
==13629==    by 0x59060AE: clone (clone.S:105)
==13629==  Address 0x60c9ca0 is 48 bytes inside a block of size 64 free'd
==13629==    at 0x4C2DD6B: free (in /usr/lib/valgrind/vgpreload_memcheck-amd64-linux.so)
==13629==    by 0x10B4A8: q_msg_free(ak_msg_t*) (message.cpp:90)
==13629==    by 0x10D578: gw_task_if_entry(void*) (task_if.cpp:77)
==13629==    by 0x4E40709: start_thread (pthread_create.c:333)
==13629==    by 0x59060AE: clone (clone.S:105)
==13629==  Block was alloc'd at
==13629==    at 0x4C2CB3F: malloc (in /usr/lib/valgrind/vgpreload_memcheck-amd64-linux.so)
==13629==    by 0x10AB22: get_common_msg() (ak.cpp:182)
==13629==    by 0x10F36A: fsm_link_state_handle(ak_msg_t*) (link.cpp:204)
==13629==    by 0x10F5A3: task_link (link.cpp:30)
==13629==    by 0x10F5A3: gw_task_link_entry(void*) (link.cpp:279)
==13629==    by 0x4E40709: start_thread (pthread_create.c:333)
==13629==    by 0x59060AE: clone (clone.S:105)
==13629== 
==13629== Invalid read of size 4
==13629==    at 0x10B655: memcpy (string3.h:53)
==13629==    by 0x10B655: trace_post_msg(ak_trace_msg_t*, ak_msg_t*) [clone .isra.24] [clone .constprop.26] (trace.cpp:230)
==13629==    by 0x10BABC: trace_msg_get(ak_msg_t*, unsigned int, long) (trace.cpp:194)
==13629==    by 0x10B45C: q_dbg_msg_get (message.cpp:136)
==13629==    by 0x10B45C: q_msg_get(q_msg_t*) (message.cpp:73)
==13629==    by 0x10D5D8: gw_task_debug_msg_entry(void*) (task_debug_msg.cpp:34)
==13629==    by 0x4E40709: start_thread (pthread_create.c:333)
==13629==    by 0x59060AE: clone (clone.S:105)
==13629==  Address 0x60c9c7c is 12 bytes inside a block of size 64 free'd
==13629==    at 0x4C2DD6B: free (in /usr/lib/valgrind/vgpreload_memcheck-amd64-linux.so)
==13629==    by 0x10B4A8: q_msg_free(ak_msg_t*) (message.cpp:90)
==13629==    by 0x10D578: gw_task_if_entry(void*) (task_if.cpp:77)
==13629==    by 0x4E40709: start_thread (pthread_create.c:333)
==13629==    by 0x59060AE: clone (clone.S:105)
==13629==  Block was alloc'd at
==13629==    at 0x4C2CB3F: malloc (in /usr/lib/valgrind/vgpreload_memcheck-amd64-linux.so)
==13629==    by 0x10AB22: get_common_msg() (ak.cpp:182)
==13629==    by 0x10F36A: fsm_link_state_handle(ak_msg_t*) (link.cpp:204)
==13629==    by 0x10F5A3: task_link (link.cpp:30)
==13629==    by 0x10F5A3: gw_task_link_entry(void*) (link.cpp:279)
==13629==    by 0x4E40709: start_thread (pthread_create.c:333)
==13629==    by 0x59060AE: clone (clone.S:105)
==13629== 
==13629== Invalid read of size 8
==13629==    at 0x10B688: memcpy (string3.h:53)
==13629==    by 0x10B688: trace_post_msg(ak_trace_msg_t*, ak_msg_t*) [clone .isra.24] [clone .constprop.26] (trace.cpp:233)
==13629==    by 0x10BABC: trace_msg_get(ak_msg_t*, unsigned int, long) (trace.cpp:194)
==13629==    by 0x10B45C: q_dbg_msg_get (message.cpp:136)
==13629==    by 0x10B45C: q_msg_get(q_msg_t*) (message.cpp:73)
==13629==    by 0x10D5D8: gw_task_debug_msg_entry(void*) (task_debug_msg.cpp:34)
==13629==    by 0x4E40709: start_thread (pthread_create.c:333)
==13629==    by 0x59060AE: clone (clone.S:105)
==13629==  Address 0x60c9ca8 is 56 bytes inside a block of size 64 free'd
==13629==    at 0x4C2DD6B: free (in /usr/lib/valgrind/vgpreload_memcheck-amd64-linux.so)
==13629==    by 0x10B4A8: q_msg_free(ak_msg_t*) (message.cpp:90)
==13629==    by 0x10D578: gw_task_if_entry(void*) (task_if.cpp:77)
==13629==    by 0x4E40709: start_thread (pthread_create.c:333)
==13629==    by 0x59060AE: clone (clone.S:105)
==13629==  Block was alloc'd at
==13629==    at 0x4C2CB3F: malloc (in /usr/lib/valgrind/vgpreload_memcheck-amd64-linux.so)
==13629==    by 0x10AB22: get_common_msg() (ak.cpp:182)
==13629==    by 0x10F36A: fsm_link_state_handle(ak_msg_t*) (link.cpp:204)
==13629==    by 0x10F5A3: task_link (link.cpp:30)
==13629==    by 0x10F5A3: gw_task_link_entry(void*) (link.cpp:279)
==13629==    by 0x4E40709: start_thread (pthread_create.c:333)
==13629==    by 0x59060AE: clone (clone.S:105)
==13629== 
==13629== Invalid read of size 1
==13629==    at 0x10B68F: memcpy (string3.h:53)
==13629==    by 0x10B68F: trace_post_msg(ak_trace_msg_t*, ak_msg_t*) [clone .isra.24] [clone .constprop.26] (trace.cpp:233)
==13629==    by 0x10BABC: trace_msg_get(ak_msg_t*, unsigned int, long) (trace.cpp:194)
==13629==    by 0x10B45C: q_dbg_msg_get (message.cpp:136)
==13629==    by 0x10B45C: q_msg_get(q_msg_t*) (message.cpp:73)
==13629==    by 0x10D5D8: gw_task_debug_msg_entry(void*) (task_debug_msg.cpp:34)
==13629==    by 0x4E40709: start_thread (pthread_create.c:333)
==13629==    by 0x59060AE: clone (clone.S:105)
==13629==  Address 0x60c6d40 is 0 bytes inside a block of size 64 free'd
==13629==    at 0x4C2DD6B: free (in /usr/lib/valgrind/vgpreload_memcheck-amd64-linux.so)
==13629==    by 0x10B49F: q_msg_free(ak_msg_t*) (message.cpp:87)
==13629==    by 0x10D578: gw_task_if_entry(void*) (task_if.cpp:77)
==13629==    by 0x4E40709: start_thread (pthread_create.c:333)
==13629==    by 0x59060AE: clone (clone.S:105)
==13629==  Block was alloc'd at
==13629==    at 0x4C2CB3F: malloc (in /usr/lib/valgrind/vgpreload_memcheck-amd64-linux.so)
==13629==    by 0x10ACB4: set_data_common_msg(ak_msg_t*, unsigned char*, unsigned int) (ak.cpp:342)
==13629==    by 0x10F3B9: fsm_link_state_handle(ak_msg_t*) (link.cpp:210)
==13629==    by 0x10F5A3: task_link (link.cpp:30)
==13629==    by 0x10F5A3: gw_task_link_entry(void*) (link.cpp:279)
==13629==    by 0x4E40709: start_thread (pthread_create.c:333)
==13629==    by 0x59060AE: clone (clone.S:105)
==13629== 
==13629== Invalid read of size 8
==13629==    at 0x10D5DC: gw_task_debug_msg_entry(void*) (task_debug_msg.cpp:36)
==13629==    by 0x4E40709: start_thread (pthread_create.c:333)
==13629==    by 0x59060AE: clone (clone.S:105)
==13629==  Address 0x60c9c20 is 16 bytes inside a block of size 24 free'd
==13629==    at 0x4C2DD6B: free (in /usr/lib/valgrind/vgpreload_memcheck-amd64-linux.so)
==13629==    by 0x10D578: gw_task_if_entry(void*) (task_if.cpp:77)
==13629==    by 0x4E40709: start_thread (pthread_create.c:333)
==13629==    by 0x59060AE: clone (clone.S:105)
==13629==  Block was alloc'd at
==13629==    at 0x4C2CB3F: malloc (in /usr/lib/valgrind/vgpreload_memcheck-amd64-linux.so)
==13629==    by 0x10AAFF: get_common_msg() (ak.cpp:177)
==13629==    by 0x10F36A: fsm_link_state_handle(ak_msg_t*) (link.cpp:204)
==13629==    by 0x10F5A3: task_link (link.cpp:30)
==13629==    by 0x10F5A3: gw_task_link_entry(void*) (link.cpp:279)
==13629==    by 0x4E40709: start_thread (pthread_create.c:333)
==13629==    by 0x59060AE: clone (clone.S:105)
==13629== 
==13629== Invalid read of size 4
==13629==    at 0x10D5E0: gw_task_debug_msg_entry(void*) (task_debug_msg.cpp:36)
==13629==    by 0x4E40709: start_thread (pthread_create.c:333)
==13629==    by 0x59060AE: clone (clone.S:105)
==13629==  Address 0x60c9c88 is 24 bytes inside a block of size 64 free'd
==13629==    at 0x4C2DD6B: free (in /usr/lib/valgrind/vgpreload_memcheck-amd64-linux.so)
==13629==    by 0x10B4A8: q_msg_free(ak_msg_t*) (message.cpp:90)
==13629==    by 0x10D578: gw_task_if_entry(void*) (task_if.cpp:77)
==13629==    by 0x4E40709: start_thread (pthread_create.c:333)
==13629==    by 0x59060AE: clone (clone.S:105)
==13629==  Block was alloc'd at
==13629==    at 0x4C2CB3F: malloc (in /usr/lib/valgrind/vgpreload_memcheck-amd64-linux.so)
==13629==    by 0x10AB22: get_common_msg() (ak.cpp:182)
==13629==    by 0x10F36A: fsm_link_state_handle(ak_msg_t*) (link.cpp:204)
==13629==    by 0x10F5A3: task_link (link.cpp:30)
==13629==    by 0x10F5A3: gw_task_link_entry(void*) (link.cpp:279)
==13629==    by 0x4E40709: start_thread (pthread_create.c:333)
==13629==    by 0x59060AE: clone (clone.S:105)
==13629== 
==13629== Invalid read of size 8
==13629==    at 0x10B2E1: msg_dec_ref_count(ak_msg_t*) (ak.cpp:586)
==13629==    by 0x10B31B: ak_msg_free(ak_msg_t*) (ak.cpp:604)
==13629==    by 0x10D6CD: gw_task_debug_msg_entry(void*) (task_debug_msg.cpp:77)
==13629==    by 0x4E40709: start_thread (pthread_create.c:333)
==13629==    by 0x59060AE: clone (clone.S:105)
==13629==  Address 0x60c9c20 is 16 bytes inside a block of size 24 free'd
==13629==    at 0x4C2DD6B: free (in /usr/lib/valgrind/vgpreload_memcheck-amd64-linux.so)
==13629==    by 0x10D578: gw_task_if_entry(void*) (task_if.cpp:77)
==13629==    by 0x4E40709: start_thread (pthread_create.c:333)
==13629==    by 0x59060AE: clone (clone.S:105)
==13629==  Block was alloc'd at
==13629==    at 0x4C2CB3F: malloc (in /usr/lib/valgrind/vgpreload_memcheck-amd64-linux.so)
==13629==    by 0x10AAFF: get_common_msg() (ak.cpp:177)
==13629==    by 0x10F36A: fsm_link_state_handle(ak_msg_t*) (link.cpp:204)
==13629==    by 0x10F5A3: task_link (link.cpp:30)
==13629==    by 0x10F5A3: gw_task_link_entry(void*) (link.cpp:279)
==13629==    by 0x4E40709: start_thread (pthread_create.c:333)
==13629==    by 0x59060AE: clone (clone.S:105)
==13629== 
==13629== Invalid read of size 4
==13629==    at 0x10B2E5: msg_dec_ref_count(ak_msg_t*) (ak.cpp:586)
==13629==    by 0x10B31B: ak_msg_free(ak_msg_t*) (ak.cpp:604)
==13629==    by 0x10D6CD: gw_task_debug_msg_entry(void*) (task_debug_msg.cpp:77)
==13629==    by 0x4E40709: start_thread (pthread_create.c:333)
==13629==    by 0x59060AE: clone (clone.S:105)
==13629==  Address 0x60c9c84 is 20 bytes inside a block of size 64 free'd
==13629==    at 0x4C2DD6B: free (in /usr/lib/valgrind/vgpreload_memcheck-amd64-linux.so)
==13629==    by 0x10B4A8: q_msg_free(ak_msg_t*) (message.cpp:90)
==13629==    by 0x10D578: gw_task_if_entry(void*) (task_if.cpp:77)
==13629==    by 0x4E40709: start_thread (pthread_create.c:333)
==13629==    by 0x59060AE: clone (clone.S:105)
==13629==  Block was alloc'd at
==13629==    at 0x4C2CB3F: malloc (in /usr/lib/valgrind/vgpreload_memcheck-amd64-linux.so)
==13629==    by 0x10AB22: get_common_msg() (ak.cpp:182)
==13629==    by 0x10F36A: fsm_link_state_handle(ak_msg_t*) (link.cpp:204)
==13629==    by 0x10F5A3: task_link (link.cpp:30)
==13629==    by 0x10F5A3: gw_task_link_entry(void*) (link.cpp:279)
==13629==    by 0x4E40709: start_thread (pthread_create.c:333)
==13629==    by 0x59060AE: clone (clone.S:105)
==13629== 
FATAL: AK 	 0x1F
==13629== 
==13629== HEAP SUMMARY:
==13629==     in use at exit: 7,655 bytes in 39 blocks
==13629==   total heap usage: 826,537 allocs, 826,498 frees, 61,132,742 bytes allocated
==13629== 
==13629== LEAK SUMMARY:
==13629==    definitely lost: 1,412 bytes in 13 blocks
==13629==    indirectly lost: 0 bytes in 0 blocks
==13629==      possibly lost: 6,048 bytes in 21 blocks
==13629==    still reachable: 195 bytes in 5 blocks
==13629==         suppressed: 0 bytes in 0 blocks
==13629== Rerun with --leak-check=full to see details of leaked memory
==13629== 
==13629== For counts of detected and suppressed errors, rerun with: -v
==13629== Use --track-origins=yes to see where uninitialised values come from
==13629== ERROR SUMMARY: 236910 errors from 32 contexts (suppressed: 0 from 0)

